Joining NCES IDs
…
## .
##     7    12 
##  9949 99599

data_with_nces_id_joined_match_all$nces_id %>% nchar() %>% table() # so does this

## .
##       7      12 
## 1788106  843130

data_with_nces_id_joined_match_all %>% 
  left_join(nces_info, by = "nces_id")  %>% 
  filter(is.na(state)) # all joined!

## # A tibble: 8,552 x 8
##    page_name  url    post   year nces_id free_and_reduce state free_and_reduce
##    <chr>      <chr>  <chr> <dbl> <chr>   <chr>            <chr> <chr>           
##  1 Lawrence  https /169  2020 2103240 <NA>             <NA>  <NA>            
##  2 Emerado P https /758  2020 3806360 <NA>             <NA>  <NA>            
##  3 East Live https /176  2020 3904391 <NA>             <NA>  <NA>            
##  4 Bluford U https /327  2020 1701417 <NA>             <NA>  <NA>            
##  5 East Live https /176  2020 3904391 <NA>             <NA>  <NA>            
##  6 Lawrence  https /169  2020 2103240 <NA>             <NA>  <NA>            
##  7 South Hol https /102  2020 2923190 <NA>             <NA>  <NA>            
##  8 Lawrence  https /169  2020 2103240 <NA>             <NA>  <NA>            
##  9 East Live https /176  2020 3904391 <NA>             <NA>  <NA>            
## 10 Lawrence  https /169  2020 2103240 <NA>             <NA>  <NA>            
## #  with 8,542 more rows
…
mean_ss

## # A tibble: 1 x 1
##   mean_ss
##     <dbl>
## 1   4517.

writing data

data_with_nces_id_joined_match_all %>% 
  left_join(nces_dist) %>% 
  select(url, nces_id, state, url, frpl, n_students = total_students_all_grades_excludes_ae_district_2017_18)

## # A tibble: 2,631,236 x 5
##    url                                         nces_id    state  frpl n_students
##    <chr>                                       <chr>      <chr> <dbl>      <dbl>
##  1 https://www.facebook.com/mountainburgps     051026000 <NA>     NA         NA
##  2 https://www.facebook.com/okaloosacountysch 1201380    <NA>     NA         NA
##  3 https://www.facebook.com/paulrbrownleaders 3700351    <NA>     NA         NA
##  4 https://www.facebook.com/westerncenteracad 061692012 <NA>     NA         NA
##  5 https://www.facebook.com/englishvalleysele 1910980    <NA>     NA         NA
##  6 https://www.facebook.com/dierksoutlaws      050534000 <NA>     NA         NA
##  7 https://www.facebook.com/muskogeeschools    4020970    <NA>     NA         NA
##  8 https://www.facebook.com/mountainburgps     051026000 <NA>     NA         NA
##  9 https://www.facebook.com/tsmsonline.org     360007605 <NA>     NA         NA
## 10 https://www.facebook.com/scv35schools       0407520    <NA>     NA         NA
## #  with 2,631,226 more rows
…
fb_pos_n

## [1] 7631

fb_pos_n/8193

## [1] 0.9314049

data_with_nces_id_joined_match_all 

## # A tibble: 2,631,236 x 5
##    page_name                url                       post        year nces_id  
##    <chr>                    <chr>                     <chr>      <dbl> <chr>    
##  1 Mountainburg Public Sch https://www.facebook.com /32428930  2020 05102600
##  2 Okaloosa County School  https://www.facebook.com /42663976  2020 1201380  
##  3 Paul R. Brown Leadershi https://www.facebook.com /27185905  2020 3700351  
##  4 Western Center Academy   https://www.facebook.com /10157361  2020 06169201
##  5 English Valleys Element https://www.facebook.com /27125007  2020 1910980  
##  6 Dierks High School       https://www.facebook.com /11764706  2020 05053400
##  7 Muskogee Public Schools  https://www.facebook.com /10157437  2020 4020970  
##  8 Mountainburg Public Sch https://www.facebook.com /32428767  2020 05102600
##  9 Tompkins Square Middle  https://www.facebook.com /33497313  2020 36000760
## 10 Santa Cruz Valley Unifi https://www.facebook.com /38965960  2020 0407520  
## #  with 2,631,226 more rows
